134055 643019 509
643335 402777 509
716759 946748 525
205420 262992 443
661086 17948 509
992031 53929 525
612068 293762 470
844702 535599 525
43599 113181 354
735205 820695 468
218850 269028 443
637894 152955 509
189305 314769 443
879776 326789 525
938937 733832 525
654850 105138 509
19985 357163 443
904296 877110 445
722170 401911 509
966709 889568 507
192401 165011 365
563370 243549 470
946116 229306 525
345504 716936 509
436364 378255 449
985840 833002 525
158708 634242 509
930224 945783 507
108125 503826 449
29320 420309 449
821559 421167 509
856946 905473 445
611515 178035 470
470397 330313 449
461363 901647 525
400585 793501 509
969775 631354 525
448163 738140 509
213725 866573 525
618428 528036 452
353313 356361 379
694112 75112 509
697395 489308 509
368557 130161 443
996453 327123 525
884504 859714 432
607376 27025 470
886526 757106 525
395810 860417 525
348638 612826 470
583605 20072 470
812648 618582 509
360664 975727 525
520338 1650 470
717392 753989 424
674725 724249 504
381202 539554 470
714991 351420 509
51390 372279 443
860536 631814 525
6594 96923 351
36311 701231 509
247839 531587 470
641853 37621 509
434428 698041 509
930494 273186 525
555285 732388 509
855249 440809 525
815831 579865 509
682020 828567 504
273227 645306 509
277603 574612 470
151080 600422 470
949258 935599 507
932912 662585 525
791383 134325 509
393593 918013 525
586814 824626 509
535431 857555 525
94930 442239 449
554344 483116 470
288792 279653 389
243299 263203 407
490883 995440 525
349311 35660 443
126823 201718 383
70701 723779 509
418656 811247 509
964926 331060 525
717965 643163 504
426330 905490 525
472227 363518 449
66818 707344 509
922059 338311 525
278345 998691 525
764991 986600 525
266814 956902 525
177166 300281 443
795480 490106 509
486941 601757 470
664513 990605 525
789685 165685 509
653130 200676 509
864910 637780 525
220617 594055 470
107787 283247 443
195251 53787 383
58561 531691 470
587529 730063 509
242898 329963 407
787561 268707 509
683367 646177 442
349946 244807 441
283209 820618 509
349941 416799 449
608796 115654 470
260435 192445 443
941329 620598 525
347412 52066 443
97255 865343 525
571559 786520 509
866754 959464 507
620658 577255 447
600676 688050 509
658372 394230 509
944724 726184 525
836029 896650 525
55974 971282 525
798669 36304 509
133534 612454 470
539047 858566 525
281774 326088 389
302764 481320 449
960442 847886 507
942682 669100 525
626026 618155 385
17196 160851 383
862433 186592 525
258781 957186 525
351285 700522 509
54802 605576 470
569598 658021 509
621982 301714 470
86854 294251 443
386575 565687 470
386256 762355 509
662026 851775 525
515130 838924 525
543122 307614 470
900076 773770 525
16356 304178 443
486801 824095 509
208273 192749 373
777591 77154 509
164681 650810 509
124492 6939 354
709470 373455 509
856146 286278 525
142430 493242 449
64793 387059 443
51725 69052 340
697778 294834 509
551047 164636 470
105236 337066 443
74886 549745 470
276455 139133 443
638149 349992 509
252280 253698 332
922097 282712 525
569492 327350 470
781986 647733 504
902315 912485 476
479166 592583 470
161186 261435 443
328513 379671 441
147111 185432 383
449368 497007 444
289994 983664 525
702290 702 509
470193 979826 525
521284 175476 470
223569 452219 449
416054 659194 509
706331 69040 509
52705 769538 509
526420 735928 509
359970 525362 470
696355 524686 509
536423 252869 470
712172 435326 509
822239 749064 468
812914 536770 509
413487 465814 444
904930 392776 525
550198 539230 452
459435 166680 449
252685 74999 443
96026 593028 470
543489 729259 509
12087 400996 443
